Schiedea Hybrid Scent
…
H x K
21
0
28

S. hookeri
32
0
36

svhybn  %>% group_by(Individual) %>% filter(n()>1) %>% ungroup() %>% #find duplicates
  dplyr::select(SampleDate, Individual, ftot, Leaves:Flrs) %>% arrange(Individual, SampleDate)

# A tibble: 31 × 10
   SampleDate Individual     ftot Leaves Inflor Mphase Fphase Closed  Buds  Flrs
   <date>     <fct>         <dbl>  <int>  <int>  <int>  <int>  <int> <int> <int>
 1 2016-08-02 hookeri WK … 3.72e5     12      2      4     22     10     9    26
 2 2017-04-10 hookeri WK … 1.39e6      2      4     12     57     23    21    33
 3 2016-08-15 hookeri WK … 6.43e6      3      2      1     14     15     7    15
 4 2017-04-10 hookeri WK … 8.45e5      1      4      6     23      8    10    37
 5 2016-08-15 hookeri WK … 8.80e5      4      4      0     35      2     9    35
 6 2017-04-10 hookeri WK … 1.64e6      2      6      4     58     35    36    29
 7 2016-08-17 kaalae 881K… 9.48e5      0      2      0     39     25    25    39
 8 2017-04-10 kaalae 881K… 1.68e6      0      3      3     18      2    47    34
 9 2016-08-17 kaalae 892W… 6.00e6      0      1      0     26     39     5    26
10 2016-08-17 kaalae 892W… 5.56e6      0      1      0     26     39     5    26
# ℹ 21 more rows
…
